{
  "project_info": {
    "project_number": "697003674496",
    "project_id": "taskapp-1",
    "storage_bucket": "taskapp-1.appspot.com"
  },
  "client": [
    {
      "client_info": {
        "mobilesdk_app_id": "1:697003674496:android:e8825280f87f849b5d0f65",
        "android_client_info": {
          "package_name": "com.example.taskapp"
        }
      },
      "oauth_client": [
        {
          "client_id": "697003674496-l5v167r3sdiar0ngfn6lm2htkbns23bn.apps.googleusercontent.com",
          "client_type": 3
        }
      ],
      "api_key": [
        {
          "current_key": "AIzaSyA5j1mBg9fxXTjNvfG6KZM6pnmcmRY6QsI"
        }
      ],
      "services": {
        "appinvite_service": {
          "other_platform_oauth_client": [
            {
              "client_id": "697003674496-l5v167r3sdiar0ngfn6lm2htkbns23bn.apps.googleusercontent.com",
              "client_type": 3
            }
          ]
        }
      }
    }
  ],
  "configuration_version": "1"
}